module gitlab.com/ehiggs/heaven-denies-go

go 1.17

require (
	github.com/gin-gonic/gin v1.7.7
	github.com/jmoiron/sqlx v1.3.4
)

require (
	github.com/easonlin404/gin-zerolog v0.0.0-20190115023532-8001804a1c1d // indirect
	github.com/gin-contrib/sse v0.1.0 // indirect
	github.com/go-playground/locales v0.13.0 // indirect
	github.com/go-playground/universal-translator v0.17.0 // indirect
	github.com/go-playground/validator/v10 v10.4.1 // indirect
	github.com/go-sql-driver/mysql v1.6.0 // indirect
	github.com/golang/protobuf v1.3.3 // indirect
	github.com/json-iterator/go v1.1.9 // indirect
	github.com/kr/pretty v0.3.0 // indirect
	github.com/leodido/go-urn v1.2.0 // indirect
	github.com/lib/pq v1.10.4 // indirect
	github.com/mattn/go-isatty v0.0.14 // indirect
	github.com/mattn/go-sqlite3 v1.14.10 // indirect
	github.com/modern-go/concurrent v0.0.0-20180228061459-e0a39a4cb421 // indirect
	github.com/modern-go/reflect2 v0.0.0-20180701023420-4b7aa43c6742 // indirect
	github.com/rogpeppe/go-internal v1.8.1 // indirect
	github.com/rs/zerolog v1.26.1 // indirect
	github.com/stretchr/testify v1.7.0 // indirect
	github.com/ugorji/go/codec v1.1.7 // indirect
	golang.org/x/crypto v0.0.0-20211215165025-cf75a172585e // indirect
	golang.org/x/sys v0.0.0-20211213223007-03aa0b5f6827 // indirect
	gopkg.in/check.v1 v1.0.0-20180628173108-788fd7840127 // indirect
	gopkg.in/yaml.v2 v2.3.0 // indirect
)
